FinalProject7.Rmd
…
raw_data2 <- raw_data
names(raw_data2)<-str_replace_all(names(raw_data2), c(" " = "."))##Column names were not ideal with numbers,commas,dashes
names(raw_data2)<-str_replace_all(names(raw_data2), c("," = "_"))
names(raw_data2)<-str_replace_all(names(raw_data2), c("-19" = ""))
highestCovidCasesStates <- raw_data2
highestCovidCasesStates$COVID.Cases.per.1_000_000.Population <- as.numeric(highestCovidCasesStates$COVID.Cases.per.1_000_000.Population)

## Warning: NAs introduced by coercion

highestCovidCasesStates <- highestCovidCasesStates[order(highestCovidCasesStates$COVID.Cases.per.1_000_000.Population,decreasing = TRUE),]
highestCovidCasesStates <- highestCovidCasesStates %>% filter(COVID.Cases.per.1_000_000.Population != 'N/A') %>%
  select(Location,COVID.Cases.per.1_000_000.Population)
highestCovidCasesStates

## # A tibble: 53 x 2
##    Location     COVID.Cases.per.1_000_000.Population
##    <chr>                                       <dbl>
##  1 North Dakota                               134349
##  2 South Dakota                               132066
##  3 Rhode Island                               128167
##  4 Utah                                       119687
##  5 Tennessee                                  118139
##  6 Arizona                                    115207
##  7 Iowa                                       110519
##  8 Oklahoma                                   110431
##  9 Arkansas                                   109250
## 10 Wisconsin                                  108708
## #  with 43 more rows

lowestCovidCasesStates <- raw_data2
lowestCovidCasesStates$COVID.Cases.per.1_000_000.Population <- as.numeric(lowestCovidCasesStates$COVID.Cases.per.1_000_000.Population)

## Warning: NAs introduced by coercion

lowestCovidCasesStates <- lowestCovidCasesStates[order(lowestCovidCasesStates$COVID.Cases.per.1_000_000.Population),]
lowestCovidCasesStates <- lowestCovidCasesStates %>% filter(COVID.Cases.per.1_000_000.Population != 'N/A') %>%
  select(Location,COVID.Cases.per.1_000_000.Population)
lowestCovidCasesStates

## # A tibble: 53 x 2
##    Location             COVID.Cases.per.1_000_000.Population
##    <chr>                                               <dbl>
##  1 Hawaii                                              20769
##  2 Vermont                                             29645
##  3 Puerto Rico                                         32948
##  4 Maine                                               36782
##  5 Oregon                                              38600
##  6 Washington                                          47093
##  7 New Hampshire                                       60582
##  8 District of Columbia                                62097
##  9 Maryland                                            67047
## 10 Virginia                                            71708
## #  with 43 more rows

highestCovidDeathsStates <- raw_data2
highestCovidDeathsStates$COVID.Deaths.per.1_000_000.Population <- as.numeric(highestCovidDeathsStates$COVID.Deaths.per.1_000_000.Population)

## Warning: NAs introduced by coercion

highestCovidDeathsStates <- highestCovidDeathsStates[order(highestCovidDeathsStates$COVID.Deaths.per.1_000_000.Population,decreasing = TRUE),]
highestCovidDeathsStates <- highestCovidDeathsStates %>% filter(COVID.Deaths.per.1_000_000.Population != 'N/A') %>%
  select(Location,COVID.Deaths.per.1_000_000.Population)
highestCovidDeathsStates

## # A tibble: 53 x 2
##    Location      COVID.Deaths.per.1_000_000.Population
##    <chr>                                         <dbl>
##  1 New Jersey                                     2742
##  2 New York                                       2562
##  3 Massachusetts                                  2474
##  4 Rhode Island                                   2462
##  5 Mississippi                                    2351
##  6 Arizona                                        2322
##  7 Connecticut                                    2206
##  8 South Dakota                                   2179
##  9 Louisiana                                      2170
## 10 Alabama                                        2146
## #  with 43 more rows

lowestCovidDeathsStates <- raw_data2
lowestCovidDeathsStates$COVID.Deaths.per.1_000_000.Population <- as.numeric(lowestCovidDeathsStates$COVID.Deaths.per.1_000_000.Population)

## Warning: NAs introduced by coercion

lowestCovidDeathsStates <- lowestCovidDeathsStates[order(lowestCovidDeathsStates$COVID.Deaths.per.1_000_000.Population),]
lowestCovidDeathsStates <- lowestCovidDeathsStates %>% filter(COVID.Deaths.per.1_000_000.Population != 'N/A') %>%
  select(Location,COVID.Deaths.per.1_000_000.Population)
lowestCovidDeathsStates

## # A tibble: 53 x 2
##    Location      COVID.Deaths.per.1_000_000.Population
##    <chr>                                         <dbl>
##  1 Hawaii                                          323
##  2 Vermont                                         359
##  3 Alaska                                          428
##  4 Maine                                           544
##  5 Oregon                                          562
##  6 Utah                                            652
##  7 Puerto Rico                                     659
##  8 Washington                                      685
##  9 New Hampshire                                   905
## 10 Colorado                                       1056
## #  with 43 more rows

5. What patterns are shown when looking at a patients death (post vaccine) and the reasons why they might have died?

#Age
deathAfterVax <- VAERSdata %>% filter(DIED=='Y')
deathAfterVaxAge <- deathAfterVax %>% count(AGE_YRS)
deathAfterVaxAge

## # A tibble: 88 x 2
##    AGE_YRS     n
##  *   <dbl> <int>
##  1    1        1
##  2    1.08     1
##  3    1.42     1
##  4    2        1
##  5    5        1
##  6   18        2
##  7   21        1
##  8   22        1
##  9   23        2
## 10   24        1
## #  with 78 more rows
…
